{
  "project_info": {
    "project_number": "918544236601",
    "firebase_url": "https://kramatorsk-online.firebaseio.com",
    "project_id": "kramatorsk-online",
    "storage_bucket": "kramatorsk-online.appspot.com"
  },
  "client": [
    {
      "client_info": {
        "mobilesdk_app_id": "1:918544236601:android:a2ffe92ce0ce855b",
        "android_client_info": {
          "package_name": "co.kramatorsk.online"
        }
      },
      "oauth_client": [
        {
          "client_id": "918544236601-75iqtafkh4aj52v3517mk4h32fef7s76.apps.googleusercontent.com",
          "client_type": 1,
          "android_info": {
            "package_name": "co.kramatorsk.online",
            "certificate_hash": "036e44805d60edac4a90f0194d88e6cd54ca48a8"
          }
        },
        {
          "client_id": "918544236601-g4i1v6b0aggs2hsqbs5uioi2soik4lcu.apps.googleusercontent.com",
          "client_type": 3
        }
      ],
      "api_key": [
        {
          "current_key": "AIzaSyDIaCUOin26JMhAvJ5UfS2Fx1nnr_XP5IY"
        }
      ],
      "services": {
        "analytics_service": {
          "status": 1
        },
        "appinvite_service": {
          "status": 2,
          "other_platform_oauth_client": [
            {
              "client_id": "918544236601-g4i1v6b0aggs2hsqbs5uioi2soik4lcu.apps.googleusercontent.com",
              "client_type": 3
            }
          ]
        },
        "ads_service": {
          "status": 2
        }
      }
    }
  ],
  "configuration_version": "1"
}